<?xml version="1.0" encoding="UTF-8" standalone="no"?>
<!-- Created with Inkscape (http://www.inkscape.org/) -->

<svg
   xmlns:dc="http://purl.org/dc/elements/1.1/"
   xmlns:cc="http://creativecommons.org/ns#"
   xmlns:rdf="http://www.w3.org/1999/02/22-rdf-syntax-ns#"
   xmlns:svg="http://www.w3.org/2000/svg"
   xmlns="http://www.w3.org/2000/svg"
   xmlns:sodipodi="http://sodipodi.sourceforge.net/DTD/sodipodi-0.dtd"
   xmlns:inkscape="http://www.inkscape.org/namespaces/inkscape"
   width="100"
   height="100"
   viewBox="0 0 26.458333 26.458334"
   version="1.1"
   id="svg845"
   inkscape:version="0.92.4 5da689c313, 2019-01-14"
   sodipodi:docname="lab glassware.svg">
  <defs
     id="defs839" />
  <sodipodi:namedview
     id="base"
     pagecolor="#ffffff"
     bordercolor="#666666"
     borderopacity="1.0"
     inkscape:pageopacity="0.0"
     inkscape:pageshadow="2"
     inkscape:zoom="5.6"
     inkscape:cx="60.765113"
     inkscape:cy="69.764353"
     inkscape:document-units="mm"
     inkscape:current-layer="layer1"
     showgrid="false"
     units="px"
     inkscape:object-paths="true"
     inkscape:snap-intersection-paths="true"
     inkscape:snap-smooth-nodes="true"
     inkscape:snap-midpoints="true"
     inkscape:snap-bbox="true"
     inkscape:window-width="1920"
     inkscape:window-height="1020"
     inkscape:window-x="0"
     inkscape:window-y="28"
     inkscape:window-maximized="1" />
  <metadata
     id="metadata842">
    <rdf:RDF>
      <cc:Work
         rdf:about="">
        <dc:format>image/svg+xml</dc:format>
        <dc:type
           rdf:resource="http://purl.org/dc/dcmitype/StillImage" />
        <dc:title></dc:title>
      </cc:Work>
    </rdf:RDF>
  </metadata>
  <g
     inkscape:label="Layer 1"
     inkscape:groupmode="layer"
     id="layer1"
     transform="translate(0,-270.54165)">
    <g
       id="g1478"
       transform="matrix(1.2644444,0,0,1.2644444,-2.4230406,-74.922118)">
      <path
         inkscape:connector-curvature="0"
         id="path3087"
         d="M 22.741289,283.67633 A 10.362579,10.362579 0 0 1 12.378734,294.0389 10.362579,10.362579 0 0 1 2.0161575,283.67633 10.362579,10.362579 0 0 1 12.378734,273.31374 10.362579,10.362579 0 0 1 22.741289,283.67633 Z"
         style="fill:#1c1f24;fill-opacity:1;stroke:none;stroke-width:0.03104851" />
      <path
         style="fill:#454a59;fill-opacity:1;stroke:none;stroke-width:0.02947221"
         d="m 22.215199,283.67633 a 9.8364827,9.8364827 0 0 1 -9.836465,9.83647 9.8364827,9.8364827 0 0 1 -9.8364871,-9.83647 9.8364827,9.8364827 0 0 1 9.8364871,-9.83649 9.8364827,9.8364827 0 0 1 9.836465,9.83649 z"
         id="path115-10-3-9-6-7-6"
         inkscape:connector-curvature="0" />
      <rect
         style="fill:#ffffff;fill-opacity:1;stroke:none;stroke-width:0.03890272;stroke-miterlimit:4;stroke-dasharray:none;stroke-opacity:1"
         id="rect3920-2-6-3-1-7-1"
         width="10.198435"
         height="9.7420177"
         x="7.152041"
         y="283.51657"
         ry="4.8710089" />
      <rect
         id="rect3810-0-7-6-2-3-1"
         width="3.304759"
         height="6.7417593"
         x="10.598907"
         y="277.21817"
         style="fill:#ffffff;fill-opacity:1;stroke:none;stroke-width:0.03890272;stroke-miterlimit:4;stroke-dasharray:none;stroke-opacity:1" />
      <rect
         ry="4.353056"
         y="284.03452"
         x="7.6943622"
         height="8.7061119"
         width="9.1139927"
         id="rect1180-3-6-3-6-5"
         style="fill:#c4aa62;fill-opacity:1;stroke-width:0.00500301" />
      <circle
         r="0.52793145"
         cy="285.69666"
         cx="11.399711"
         id="circle111-6-2-9-1-5-9"
         style="fill:#f4eed7;fill-opacity:1;stroke:none;stroke-width:0.06683359;stroke-miterlimit:4;stroke-dasharray:none;stroke-opacity:1" />
      <circle
         style="fill:#f4eed7;fill-opacity:1;stroke:none;stroke-width:0.03440002;stroke-miterlimit:4;stroke-dasharray:none;stroke-opacity:1"
         id="circle1108-6-6-63-8"
         cx="12.654437"
         cy="288.44574"
         r="0.22850218" />
      <rect
         style="fill:#ffffff;fill-opacity:1;stroke:none;stroke-width:0.03890272;stroke-miterlimit:4;stroke-dasharray:none;stroke-opacity:1"
         id="rect3830-6-5-0-9-9-0"
         width="5.7826247"
         height="1.6415097"
         x="9.3599663"
         y="276.96176" />
      <rect
         style="fill:#c4aa62;fill-opacity:1;stroke-width:0.0097661"
         y="277.46378"
         x="11.100962"
         height="7.6964931"
         width="2.3007042"
         id="rect1182-0-0-5-3-4" />
      <circle
         style="fill:#e9ddaf;fill-opacity:1;stroke:none;stroke-width:0.04757678;stroke-miterlimit:4;stroke-dasharray:none;stroke-opacity:1"
         id="circle1108-6-0-9-4"
         cx="12.913365"
         cy="278.84933"
         r="0.31602883" />
      <circle
         style="fill:#e9ddaf;fill-opacity:1;stroke:none;stroke-width:0.06683359;stroke-miterlimit:4;stroke-dasharray:none;stroke-opacity:1"
         id="path109-7-1-7-0-08-4"
         cx="12.437045"
         cy="283.40491"
         r="0.79189724" />
      <circle
         r="0.23462941"
         cy="290.32791"
         cx="12.680739"
         id="circle1106-3-8-4"
         style="fill:#e9ddaf;fill-opacity:1;stroke:none;stroke-width:0.03532244;stroke-miterlimit:4;stroke-dasharray:none;stroke-opacity:1" />
      <circle
         style="fill:#f4eed7;fill-opacity:1;stroke:none;stroke-width:0.04757678;stroke-miterlimit:4;stroke-dasharray:none;stroke-opacity:1"
         id="circle1108-6-5-7"
         cx="11.712309"
         cy="290.9436"
         r="0.31602883" />
      <circle
         style="fill:#f4eed7;fill-opacity:1;stroke:none;stroke-width:0.04757678;stroke-miterlimit:4;stroke-dasharray:none;stroke-opacity:1"
         id="circle1108-6-1-0-6"
         cx="11.66084"
         cy="281.24872"
         r="0.31602883" />
      <circle
         style="fill:#f4eed7;fill-opacity:1;stroke-width:0.03848843"
         id="path109-7-1-6-9-3"
         cx="14.06207"
         cy="276.04349"
         r="0.73128003" />
      <circle
         r="0.48752007"
         cy="274.8801"
         cx="15.181134"
         id="circle111-6-2-3-6-1"
         style="fill:#f4eed7;fill-opacity:1;stroke-width:0.02565895" />
      <circle
         style="fill:#f4eed7;fill-opacity:1;stroke-width:0.02157684"
         id="circle113-5-7-20-3-7"
         cx="15.483535"
         cy="276.44022"
         r="0.40996003" />
      <rect
         style="fill:#c4aa62;fill-opacity:1;stroke:none;stroke-width:0.06301868;stroke-miterlimit:4;stroke-dasharray:none;stroke-opacity:1"
         id="rect1267-8-5"
         width="4.7961516"
         height="0.8985247"
         x="9.8532162"
         y="277.33325" />
      <path
         inkscape:connector-curvature="0"
         id="path115-10-3-9-6-7-5-9"
         d="m 12.378734,273.83984 v 19.67296 a 9.8364827,9.8364827 0 0 0 9.83653,-9.83649 9.8364827,9.8364827 0 0 0 -9.83653,-9.83647 z"
         style="opacity:0.42900002;fill:#1c1f24;fill-opacity:1;stroke:none;stroke-width:0.02947221" />
    </g>
  </g>
</svg>
